// Jest Snapshot v1, https://goo.gl/fbAQLP

exports[`FileSelector.vue renders expected output 1`] = `
<div>
  <label
    class="input-file-container"
  >
    <span
      class="label-text"
    >
      Escolha um arquivo: 
    </span>
     
    <span
      class="selected-file"
    >
      Nenhum arquivo selecionado
    </span>
     
    <input
      name="file"
      type="file"
    />
  </label>
</div>
`;
